 216.193.223.57 - - 0
   10.167.60.50 - - 1
 134.249.241.26 - - 2
  198.24.214.89 - - 3
    229.6.96.95 - - 4
   60.75.117.13 - - 5
  89.103.188.97 - - 6
    182.48.4.10 - - 7
  199.11.159.86 - - 8
  90.174.102.67 - - 9
 184.181.80.248 - - 10
   187.188.5.77 - - 11
   191.42.86.16 - - 12
    108.35.7.17 - - 13
 101.57.119.232 - - 14
  76.180.110.82 - - 15
 220.38.186.239 - - 16
  158.15.85.245 - - 17
  76.20.136.229 - - 18
   44.37.234.30 - - 19
 104.91.252.118 - - 20
   240.52.4.121 - - 21
   163.0.245.42 - - 22
   31.216.84.96 - - 23
 76.180.139.235 - - 24
 128.95.156.169 - - 25
  58.18.229.166 - - 26
 110.164.118.59 - - 27
249.238.165.177 - - 28
243.245.127.209 - - 29
   145.16.92.10 - - 30
  210.226.0.129 - - 31
 77.146.184.157 - - 32
 123.238.98.224 - - 33
  46.191.114.23 - - 34
  53.134.25.234 - - 35
  235.62.15.240 - - 36
  249.175.175.6 - - 37
 162.194.22.209 - - 38
  213.90.56.185 - - 39
  159.180.70.92 - - 40
    192.72.86.4 - - 41
  221.114.219.8 - - 42
  69.230.139.88 - - 43
   50.38.21.165 - - 44
108.160.137.183 - - 45
   48.70.91.166 - - 46
191.120.169.108 - - 47
   67.76.225.82 - - 48
  94.250.231.86 - - 49
 145.53.149.104 - - 50
105.204.216.219 - - 51
153.193.160.247 - - 52
 86.106.150.220 - - 53
 163.170.239.87 - - 54
 223.227.145.74 - - 55
 119.35.124.145 - - 56
 162.161.193.54 - - 57
 240.114.53.165 - - 58
171.123.167.135 - - 59
 99.113.216.120 - - 60
 114.179.18.152 - - 61
   230.52.37.89 - - 62
 20.165.163.120 - - 63
  247.60.19.103 - - 64
 195.43.133.147 - - 65
   18.234.22.78 - - 66
 198.14.196.240 - - 67
   38.18.152.23 - - 68
   108.19.64.88 - - 69
   16.232.27.12 - - 70
    224.96.53.2 - - 71
123.177.197.238 - - 72
 195.94.191.175 - - 73
 197.220.62.244 - - 74
  218.79.231.65 - - 75
  228.130.25.80 - - 76
    101.52.7.46 - - 77
    78.95.67.64 - - 78
195.200.165.126 - - 79
 108.210.39.230 - - 80
  147.165.39.20 - - 81
  38.123.121.86 - - 82
104.203.195.120 - - 83
 115.93.231.165 - - 84
 184.64.199.108 - - 85
  24.205.29.247 - - 86
  200.94.11.251 - - 87
236.137.203.192 - - 88
  126.18.15.210 - - 89
 97.150.190.187 - - 90
    124.48.74.0 - - 91
   16.252.24.79 - - 92
  7.132.122.127 - - 93
  151.93.62.104 - - 94
    97.94.22.47 - - 95
  15.239.30.245 - - 96
 198.167.39.251 - - 97
200.143.206.153 - - 98
  48.218.54.113 - - 99
  64.185.176.46 - - 100
    114.90.4.13 - - 101
  89.177.141.65 - - 102
 117.252.62.220 - - 103
  82.56.111.156 - - 104
 146.221.113.93 - - 105
  30.133.26.121 - - 106
 85.180.213.166 - - 107
   238.103.95.2 - - 108
   44.75.207.75 - - 109
  54.191.200.46 - - 110
 191.223.44.130 - - 111
  100.200.72.57 - - 112
 13.109.122.124 - - 113
  31.195.218.26 - - 114
  112.73.21.252 - - 115
 201.19.106.214 - - 116
 50.127.171.155 - - 117
 133.217.68.153 - - 118
   91.206.95.68 - - 119
 27.153.247.208 - - 120
 204.83.212.208 - - 121
 86.117.125.209 - - 122
 235.31.196.232 - - 123
  220.8.224.192 - - 124
  93.91.221.107 - - 125
135.252.232.175 - - 126
  160.176.27.23 - - 127
 177.214.105.62 - - 128
  121.25.210.65 - - 129
   35.145.60.52 - - 130
  141.76.35.187 - - 131
  115.11.13.199 - - 132
 158.111.129.72 - - 133
  16.99.123.160 - - 134
  50.194.142.44 - - 135
  73.187.50.196 - - 136
 175.93.125.219 - - 137
     13.8.3.240 - - 138
  47.77.168.178 - - 139
   51.216.37.30 - - 140
  135.154.28.64 - - 141
   121.82.25.41 - - 142
    90.9.59.158 - - 143
160.183.228.227 - - 144
 40.154.206.211 - - 145
  75.54.146.254 - - 146
   173.32.14.63 - - 147
 119.231.58.147 - - 148
 15.114.122.123 - - 149
  205.42.251.79 - - 150
  152.15.163.89 - - 151
 25.199.159.105 - - 152
   27.43.43.189 - - 153
148.147.220.245 - - 154
 35.152.150.145 - - 155
 240.101.110.73 - - 156
 152.236.198.24 - - 157
 53.179.121.104 - - 158
  125.214.47.71 - - 159
 235.27.226.195 - - 160
   229.151.27.7 - - 161
 47.158.170.184 - - 162
 91.246.153.105 - - 163
 130.119.98.162 - - 164
   55.66.228.67 - - 165
  162.176.67.93 - - 166
  187.22.86.187 - - 167
172.235.155.152 - - 168
  242.22.66.179 - - 169
   56.16.123.88 - - 170
  133.195.75.26 - - 171
 95.185.229.122 - - 172
   50.25.10.150 - - 173
 195.172.237.44 - - 174
  128.170.12.32 - - 175
  3.166.122.149 - - 176
  216.86.155.90 - - 177
   52.73.164.48 - - 178
 47.222.198.218 - - 179
101.251.236.149 - - 180
204.236.148.179 - - 181
   42.9.171.171 - - 182
   5.80.101.220 - - 183
 172.66.129.131 - - 184
 200.135.241.94 - - 185
   222.0.182.83 - - 186
  116.223.86.81 - - 187
  190.70.189.86 - - 188
   75.179.39.29 - - 189
  186.77.80.143 - - 190
101.157.132.132 - - 191
180.226.215.155 - - 192
 41.161.151.104 - - 193
    51.51.26.38 - - 194
 121.167.252.90 - - 195
  185.16.99.177 - - 196
    52.197.3.84 - - 197
 91.185.148.170 - - 198
  184.51.191.65 - - 199
 245.183.216.24 - - 200
  131.230.96.40 - - 201
  187.85.244.75 - - 202
    26.55.64.23 - - 203
  235.200.94.92 - - 204
   218.5.159.50 - - 205
 222.18.145.114 - - 206
   98.59.13.127 - - 207
  214.28.102.10 - - 208
 166.177.220.73 - - 209
  32.190.72.188 - - 210
  230.203.48.56 - - 211
 137.143.149.70 - - 212
  32.69.129.133 - - 213
 52.172.136.194 - - 214
 168.25.170.215 - - 215
 66.244.121.106 - - 216
  9.122.206.176 - - 217
   239.91.84.56 - - 218
  82.49.177.136 - - 219
    7.55.137.71 - - 220
 125.241.88.233 - - 221
207.197.224.223 - - 222
   138.103.7.57 - - 223
 236.81.245.109 - - 224
 114.25.232.251 - - 225
 179.154.56.218 - - 226
    43.92.9.186 - - 227
 244.129.195.22 - - 228
  67.244.87.232 - - 229
  94.13.106.188 - - 230
  211.42.234.90 - - 231
  203.71.182.25 - - 232
  224.84.195.52 - - 233
  52.157.209.10 - - 234
  82.62.159.111 - - 235
 29.162.135.123 - - 236
  33.225.200.79 - - 237
173.114.218.120 - - 238
  115.73.228.92 - - 239
  211.24.228.19 - - 240
 168.163.21.207 - - 241
 16.169.226.147 - - 242
 169.225.15.133 - - 243
223.253.196.192 - - 244
 238.87.239.203 - - 245
  219.57.150.41 - - 246
  17.68.237.188 - - 247
246.137.132.185 - - 248
  225.57.48.238 - - 249
 128.208.111.20 - - 250
 81.188.109.162 - - 251
  208.36.74.106 - - 252
 169.171.28.200 - - 253
 195.67.170.215 - - 254
  223.46.87.124 - - 255
  99.135.72.113 - - 256
   5.71.184.205 - - 257
 109.234.95.148 - - 258
  25.74.207.254 - - 259
   150.22.51.38 - - 260
  194.206.3.137 - - 261
 171.163.18.201 - - 262
184.225.239.142 - - 263
   252.6.160.62 - - 264
216.135.156.139 - - 265
 181.186.96.115 - - 266
  51.225.25.114 - - 267
    2.193.155.0 - - 268
 155.119.92.131 - - 269
  46.109.53.253 - - 270
104.119.112.128 - - 271
   29.28.17.144 - - 272
    141.6.82.28 - - 273
  190.101.7.133 - - 274
   48.206.3.188 - - 275
116.190.142.211 - - 276
 80.133.183.250 - - 277
112.191.171.245 - - 278
    75.2.35.104 - - 279
 143.101.188.94 - - 280
   45.33.75.135 - - 281
   67.26.46.119 - - 282
  44.165.100.17 - - 283
    116.85.59.3 - - 284
190.171.153.218 - - 285
  131.26.62.181 - - 286
  31.127.206.11 - - 287
 206.163.58.112 - - 288
 56.216.178.103 - - 289
   91.9.156.117 - - 290
 75.220.186.228 - - 291
143.181.101.103 - - 292
 197.87.208.214 - - 293
    29.230.39.8 - - 294
   25.19.219.79 - - 295
132.150.162.253 - - 296
 142.80.100.156 - - 297
 208.140.225.10 - - 298
106.163.246.247 - - 299
 118.123.19.131 - - 300
 207.211.19.190 - - 301
   123.77.149.0 - - 302
 59.127.195.223 - - 303
  64.35.231.116 - - 304
  149.152.36.79 - - 305
 164.157.120.67 - - 306
 22.249.129.158 - - 307
 92.106.129.251 - - 308
 147.182.212.32 - - 309
 152.64.104.192 - - 310
 234.215.179.31 - - 311
 123.174.94.149 - - 312
  152.179.28.39 - - 313
  228.123.42.22 - - 314
   190.8.138.81 - - 315
  143.113.84.66 - - 316
   30.131.95.28 - - 317
 150.204.57.121 - - 318
 193.125.124.77 - - 319
211.191.150.197 - - 320
116.225.143.200 - - 321
  177.165.171.1 - - 322
 49.178.139.115 - - 323
  90.229.10.142 - - 324
  20.150.50.137 - - 325
105.171.149.176 - - 326
 168.80.181.244 - - 327
136.219.102.158 - - 328
 122.35.218.142 - - 329
  144.0.132.239 - - 330
   69.118.21.96 - - 331
    32.5.167.19 - - 332
   57.72.146.72 - - 333
 200.11.130.193 - - 334
   41.46.43.150 - - 335
  55.167.65.193 - - 336
  146.1.166.136 - - 337
   243.74.42.95 - - 338
218.124.215.184 - - 339
183.178.174.105 - - 340
  54.85.107.224 - - 341
  90.165.65.161 - - 342
  4.161.130.145 - - 343
 216.69.194.240 - - 344
162.151.101.176 - - 345
 17.202.103.191 - - 346
 10.242.234.232 - - 347
   14.121.77.75 - - 348
 154.136.101.98 - - 349
   31.11.75.228 - - 350
    6.224.42.85 - - 351
   2.245.135.93 - - 352
  56.217.12.107 - - 353
  225.64.244.24 - - 354
 153.161.91.249 - - 355
253.199.207.133 - - 356
  36.157.62.117 - - 357
  35.52.149.253 - - 358
 29.253.122.196 - - 359
   92.246.54.56 - - 360
    100.24.7.66 - - 361
 124.15.101.231 - - 362
180.197.235.151 - - 363
  110.111.79.40 - - 364
  71.110.98.193 - - 365
  104.76.20.195 - - 366
 176.101.41.232 - - 367
102.160.215.141 - - 368
234.202.121.221 - - 369
  154.177.62.79 - - 370
   223.38.40.94 - - 371
179.105.165.251 - - 372
 235.84.200.127 - - 373
  19.200.119.52 - - 374
 47.142.230.213 - - 375
  110.200.99.80 - - 376
 160.152.179.64 - - 377
 106.103.92.108 - - 378
 47.106.167.103 - - 379
  40.206.157.52 - - 380
   124.211.8.90 - - 381
 219.176.49.121 - - 382
 237.246.84.218 - - 383
 209.92.149.178 - - 384
  18.156.235.67 - - 385
   149.37.147.1 - - 386
 184.178.151.18 - - 387
  12.27.102.101 - - 388
 37.127.180.135 - - 389
  182.48.177.41 - - 390
   51.87.31.233 - - 391
 123.68.249.181 - - 392
  107.237.55.80 - - 393
 150.192.147.88 - - 394
  77.112.135.15 - - 395
 159.170.65.178 - - 396
   89.35.244.37 - - 397
196.100.237.200 - - 398
  149.31.120.71 - - 399
 156.131.67.252 - - 400
 154.101.197.95 - - 401
   66.101.5.103 - - 402
107.123.111.173 - - 403
 135.124.115.70 - - 404
  155.42.95.210 - - 405
 126.112.28.147 - - 406
 138.36.178.110 - - 407
173.146.216.229 - - 408
  183.168.88.46 - - 409
  144.64.237.46 - - 410
117.105.247.101 - - 411
    95.46.123.4 - - 412
  128.70.14.139 - - 413
 38.199.183.124 - - 414
   61.162.49.67 - - 415
  170.4.168.213 - - 416
165.111.250.188 - - 417
  180.108.79.97 - - 418
    38.39.9.158 - - 419
 160.60.124.119 - - 420
 245.84.252.196 - - 421
107.188.194.111 - - 422
166.108.143.123 - - 423
  143.94.58.207 - - 424
     252.8.1.13 - - 425
    93.42.11.71 - - 426
 71.203.141.197 - - 427
 187.129.243.16 - - 428
197.136.163.200 - - 429
  100.83.69.213 - - 430
  221.103.11.72 - - 431
   23.64.251.72 - - 432
    45.37.58.22 - - 433
    77.71.0.221 - - 434
165.182.126.142 - - 435
115.246.168.140 - - 436
  93.210.200.78 - - 437
   178.81.15.92 - - 438
   178.61.44.68 - - 439
 181.189.217.53 - - 440
  225.220.107.8 - - 441
  33.206.112.63 - - 442
  70.222.46.130 - - 443
127.178.220.175 - - 444
 210.132.161.87 - - 445
240.134.187.241 - - 446
 125.91.174.154 - - 447
  219.253.9.102 - - 448
 170.247.14.189 - - 449
  96.253.160.65 - - 450
220.113.205.203 - - 451
  100.37.190.57 - - 452
    40.59.37.77 - - 453
 101.100.239.14 - - 454
  56.34.173.119 - - 455
   106.28.30.20 - - 456
 222.113.66.130 - - 457
 200.109.182.91 - - 458
  126.161.57.65 - - 459
  147.157.28.17 - - 460
   210.7.173.88 - - 461
 234.199.220.49 - - 462
   212.96.9.174 - - 463
  121.71.90.181 - - 464
    194.69.14.5 - - 465
219.130.221.203 - - 466
  155.198.1.177 - - 467
   199.1.79.192 - - 468
127.205.200.252 - - 469
    30.10.1.172 - - 470
  203.10.18.171 - - 471
    80.32.62.18 - - 472
235.114.207.150 - - 473
 175.30.167.245 - - 474
 47.175.175.107 - - 475
 162.211.117.34 - - 476
  22.249.87.247 - - 477
  205.81.40.160 - - 478
 248.47.113.150 - - 479
  161.88.93.148 - - 480
 233.68.253.165 - - 481
  245.141.174.7 - - 482
    57.60.89.14 - - 483
 139.110.217.86 - - 484
    5.89.226.87 - - 485
  163.30.176.67 - - 486
  173.51.84.197 - - 487
 12.147.108.222 - - 488
  38.215.31.119 - - 489
 75.185.113.222 - - 490
  112.48.93.145 - - 491
198.132.174.246 - - 492
  189.75.57.217 - - 493
     21.26.8.97 - - 494
   5.67.210.101 - - 495
215.131.146.160 - - 496
  15.229.254.39 - - 497
 202.146.125.41 - - 498
  59.80.117.143 - - 499
